12 Read types survey of RNA-Seq samples
…
QC

Average duplicate rate per project

read_counts_with_slices %>% 
  mutate(project=gsub("[-_].*$", "", sample_id)) %>%
  group_by(project) %>%
  summarize(
    mean_pct_dupe=mean(Percent_duplicates),
    n=n()
    ) %>%
  arrange((mean_pct_dupe))

## # A tibble: 29 x 3
##    project mean_pct_dupe     n
##    <chr>           <dbl> <int>
##  1 THR33        -4.90      127
##  2 THR08        -0.00660    63
##  3 THR37         0.123      15
##  4 TH26          0.125       6
##  5 THR17         0.131      17
##  6 THR18         0.142       6
##  7 THR11         0.151      25
##  8 THR19         0.167      23
##  9 THR30         0.242      62
## 10 THR10         0.253      19
## #  with 19 more rows

read_counts_with_slices %>% 
  filter(UMEND>20E6) %>%
  mutate(project=gsub("[-_].*$", "", sample_id)) %>%
  group_by(project) %>%
  summarize(
    mean_pct_dupe=mean(Percent_duplicates),
    n=n()
    ) %>%
  arrange((mean_pct_dupe))

## # A tibble: 28 x 3
##    project mean_pct_dupe     n
##    <chr>           <dbl> <int>
##  1 THR08        -0.00660    63
##  2 THR11         0.111      23
##  3 THR17         0.131      17
##  4 TH26          0.134       2
##  5 THR10         0.140      14
##  6 THR18         0.142       6
##  7 THR13         0.154       5
##  8 THR19         0.167      23
##  9 THR14         0.220      27
## 10 THR37         0.225       2
## #  with 18 more rows
