12 Read types survey of RNA-Seq samples
…
read_counts_with_slices2 <- read_counts_with_slices %>% 
  mutate(
    pct_unmapped = not_mapped / total_sequences,
    pct_non_exonic = non_exonic_reads - UMND,
    in_ref_range = sample_id %in% samples_within_limits)

summary(read_counts_with_slices2$pct_unmapped)

##     Min.  1st Qu.   Median     Mean  3rd Qu.     Max. 
## 0.006432 0.022832 0.033862 0.112122 0.068421 0.939513

read_counts_with_slices2 %>% arrange(desc(pct_unmapped))

## # A tibble: 1,088 x 14
##    sample_id total_sequences  UMEND   UMND     UM pct_UMEND
##    <chr>               <dbl>  <dbl>  <dbl>  <dbl>     <dbl>
##  1 THR33_10       241235971 1.60e5 3.87e6 1.46e7  0.000663
##  2 THR33_10       225154036 1.38e5 3.26e6 1.43e7  0.000613
##  3 THR33_10       235425032 1.34e5 2.12e6 1.51e7  0.000569
##  4 THR33_10       198952482 1.51e5 2.95e6 1.35e7  0.000757
##  5 THR33_10       219845012 1.60e5 3.69e6 1.64e7  0.000726
##  6 THR33_10       190930526 1.10e5 1.22e6 1.46e7  0.000576
##  7 THR33_10       186190207 1.48e5 2.03e6 1.42e7  0.000796
##  8 THR33_10       194330569 1.36e5 2.07e6 1.50e7  0.000698
##  9 THR33_10       247574247 1.87e5 4.21e6 2.01e7  0.000753
## 10 THR33_10       198567115 1.40e5 2.33e6 1.64e7  0.000705
## #  with 1,078 more rows, and 8 more variables: Percent_duplicates <dbl>,
## #   not_mapped <dbl>, duplicate_reads <dbl>, non_exonic_reads <dbl>,
## #   sum_slices <dbl>, pct_unmapped <dbl>, pct_non_exonic <dbl>,
## #   in_ref_range <lgl>

read_counts_with_slices2 %>%
  filter(UMEND > 20E6) %>%
  arrange(desc(pct_unmapped))

## # A tibble: 834 x 14
##    sample_id total_sequences  UMEND   UMND     UM pct_UMEND
##    <chr>               <dbl>  <dbl>  <dbl>  <dbl>     <dbl>
##  1 TH02_065        82425973 3.23e7 3.59e7 4.51e7     0.392
##  2 TARGET-4        48293656 2.08e7 2.42e7 3.47e7     0.431
##  3 TARGET-4        86117682 2.45e7 2.69e7 6.36e7     0.285
##  4 TARGET-4        64824445 2.45e7 3.12e7 4.85e7     0.379
##  5 TARGET-4        69887166 3.17e7 3.76e7 5.26e7     0.454
##  6 TH02_008        95511229 3.70e7 4.27e7 7.19e7     0.388
##  7 TH02_008        79509269 4.22e7 4.94e7 5.99e7     0.531
##  8 TARGET-4        82799354 3.72e7 4.21e7 6.28e7     0.450
##  9 TARGET-4        97429511 2.07e7 2.31e7 7.46e7     0.213
## 10 TARGET-4        47226940 2.00e7 2.39e7 3.62e7     0.425
## #  with 824 more rows, and 8 more variables: Percent_duplicates <dbl>,
## #   not_mapped <dbl>, duplicate_reads <dbl>, non_exonic_reads <dbl>,
## #   sum_slices <dbl>, pct_unmapped <dbl>, pct_non_exonic <dbl>,
## #   in_ref_range <lgl>
…
QC

Average duplicate rate per project

read_counts_with_slices %>% 
  mutate(project=gsub("[-_].*$", "", sample_id)) %>%
  group_by(project) %>%
  summarize(
    mean_pct_dupe=mean(Percent_duplicates),
    n=n()
    ) %>%
  arrange((mean_pct_dupe))

## # A tibble: 29 x 3
##    project mean_pct_dupe     n
##    <chr>           <dbl> <int>
##  1 THR08          0.0539    63
##  2 TH26           0.182      6
##  3 THR17          0.185     17
##  4 THR11          0.213     25
##  5 THR19          0.245     23
##  6 THR18          0.277      6
##  7 THR13          0.302     24
##  8 THR30          0.306     62
##  9 THR22          0.328     24
## 10 THR28          0.329      3
## #  with 19 more rows

read_counts_with_slices %>% 
  filter(UMEND>20E6) %>%
  mutate(project=gsub("[-_].*$", "", sample_id)) %>%
  group_by(project) %>%
  summarize(
    mean_pct_dupe=mean(Percent_duplicates),
    n=n()
    ) %>%
  arrange((mean_pct_dupe))

## # A tibble: 28 x 3
##    project mean_pct_dupe     n
##    <chr>           <dbl> <int>
##  1 THR08          0.0539    63
##  2 THR11          0.174     23
##  3 THR17          0.185     17
##  4 TH26           0.188      2
##  5 THR13          0.207      5
##  6 THR10          0.228     14
##  7 THR19          0.245     23
##  8 THR18          0.277      6
##  9 THR14          0.291     27
## 10 THR30          0.306     62
## #  with 18 more rows
