14 plot similar samples
…
parent_sample_metadata <- read_tsv("../data/parent_sample_data_source.tsv",
                                   col_types = cols()) %>%
# parent_sample_metadata$`technical_sample_id-qc_only`
rename(treehouse_id = `Treehouse ID`)

disease_info_for_compendium <- read_tsv("../data/TreehousePEDv9_clinical_metadata.2019-03-15.tsv", col_types=cols()) %>%
  rename(THid = th_sampleid)
# disease_info_for_compendium<-read_tsv("../data/sample_data_for_qc_paper_downloaded_via_API_2019-01-04_07.01.47PM.txt",
#  col_types=cols())

disease_info_for_compendium

## # A tibble: 11,454 x 7
##    THid    disease     age_at_dx pedaya  gender site_donor_id site_sampleid
##    <chr>   <chr>           <dbl> <chr>   <chr>  <chr>         <chr>        
##  1 TH03_0 acute leuk        11 Yes, a female N/A           N/A          
##  2 TH03_0 acute leuk        11 Yes, a female N/A           N/A          
##  3 THR33_ medullobla         7 Yes, a female N/A           N/A          
##  4 THR33_ medullobla         5 Yes, a male   N/A           N/A          
##  5 THR33_ medullobla         5 Yes, a female N/A           N/A          
##  6 THR33_ medullobla         3 Yes, a female N/A           N/A          
##  7 THR33_ medullobla        26 Yes, a male   N/A           N/A          
##  8 THR33_ medullobla        10 Yes, a male   N/A           N/A          
##  9 THR33_ medullobla         3 Yes, a male   N/A           N/A          
## 10 THR33_ medullobla        27 Yes, a male   N/A           N/A          
## #  with 11,444 more rows
…
