12 Read types survey of RNA-Seq samples vMM
…
read_counts_with_slices2 <- read_counts_with_slices %>% 
  mutate(
    pct_unmapped = not_mapped / total_sequences,
    pct_non_exonic = non_exonic_reads - UMND,
    in_ref_range = sample_id %in% samples_within_limits)

summary(read_counts_with_slices2$pct_unmapped)

##     Min.  1st Qu.   Median     Mean  3rd Qu.     Max. 
## 0.006432 0.022523 0.031416 0.057603 0.061657 0.541952

read_counts_with_slices2 %>% arrange(desc(pct_unmapped))

## # A tibble: 898 x 15
##    sample_id Multimapped_rea total_sequences  UMEND   UMND     UM
##    <chr>                <dbl>           <dbl>  <dbl>  <dbl>  <dbl>
##  1 THR15_03          1218900        13163014 3.27e6 3.54e6 6.03e6
##  2 THR23_06            34615          206916 1.55e4 3.01e4 9.91e4
##  3 THR23_06          2495751        15869499 3.54e5 1.45e6 8.53e6
##  4 TH02_065          2519061        82425973 3.23e7 3.59e7 4.51e7
##  5 THR14_03         31870204       102631146 3.31e6 4.74e6 5.73e7
##  6 TARGET-4          3485952        63080976 8.35e6 9.59e6 3.52e7
##  7 TH03_013          2983042        15886238 7.57e5 9.64e5 8.94e6
##  8 TH03_013         12979876        71360091 9.90e5 1.29e6 4.08e7
##  9 THR14_03         23051102        78952869 2.96e6 4.12e6 4.64e7
## 10 TARGET-4          2221160        56223589 5.90e6 6.51e6 3.31e7
## #  with 888 more rows, and 9 more variables: pct_UMEND <dbl>,
## #   Percent_duplicates <dbl>, not_mapped <dbl>, duplicate_reads <dbl>,
## #   non_exonic_reads <dbl>, sum_slices <dbl>, pct_unmapped <dbl>,
## #   pct_non_exonic <dbl>, in_ref_range <lgl>

read_counts_with_slices2 %>%
  filter(UMEND > 20E6) %>%
  arrange(desc(pct_unmapped))

## # A tibble: 722 x 15
##    sample_id Multimapped_rea total_sequences  UMEND   UMND     UM
##    <chr>                <dbl>           <dbl>  <dbl>  <dbl>  <dbl>
##  1 TH02_065          2519061        82425973 3.23e7 3.59e7 4.51e7
##  2 TARGET-4          2292026        48293656 2.08e7 2.42e7 3.47e7
##  3 TARGET-4          5412413        86117682 2.45e7 2.69e7 6.36e7
##  4 TARGET-4          3912241        64824445 2.45e7 3.12e7 4.85e7
##  5 TARGET-4          3622110        69887166 3.17e7 3.76e7 5.26e7
##  6 TH02_008          5892572        95511229 3.70e7 4.27e7 7.19e7
##  7 TH02_008          3219709        79509269 4.22e7 4.94e7 5.99e7
##  8 TARGET-4          4040057        82799354 3.72e7 4.21e7 6.28e7
##  9 TARGET-4          5220701        97429511 2.07e7 2.31e7 7.46e7
## 10 TARGET-4          2284110        47226940 2.00e7 2.39e7 3.62e7
## #  with 712 more rows, and 9 more variables: pct_UMEND <dbl>,
## #   Percent_duplicates <dbl>, not_mapped <dbl>, duplicate_reads <dbl>,
## #   non_exonic_reads <dbl>, sum_slices <dbl>, pct_unmapped <dbl>,
## #   pct_non_exonic <dbl>, in_ref_range <lgl>
…
# for each project, what fraction of samples has fewer than 20% duplicates
    
    rcdi %>%
      group_by(project) %>%
      summarize(
        pct_under_20 = sum(Percent_duplicates<0.2)/n(),
        frac_under_20 = paste0(sum(Percent_duplicates<0.2), "/", n()),
        mean = mean(Percent_duplicates)
        ) %>%
      arrange(desc(pct_under_20))

## # A tibble: 27 x 4
##    project pct_under_20 frac_under_20  mean
##    <chr>          <dbl> <chr>         <dbl>
##  1 TH26          0.833  5/6           0.182
##  2 THR17         0.824  14/17         0.185
##  3 THR11         0.64   16/25         0.213
##  4 THR10         0.474  9/19          0.357
##  5 THR19         0.435  10/23         0.245
##  6 THR13         0.417  10/24         0.302
##  7 THR18         0.333  2/6           0.277
##  8 THR20         0.308  12/39         0.346
##  9 TH02          0.0690 2/29          0.390
## 10 THR14         0.0645 2/31          0.360
## #  with 17 more rows
…
    # sort(table(subset(rcdi2, Percent_duplicates<0.20)$project), desc=TRUE)

Average duplicate rate per project

read_counts_with_slices %>% 
  mutate(project=gsub("[-_].*$", "", sample_id)) %>%
  group_by(project) %>%
  summarize(
    mean_pct_dupe=mean(Percent_duplicates),
    n=n()
    ) %>%
  arrange((mean_pct_dupe))

## # A tibble: 27 x 3
##    project mean_pct_dupe     n
##    <chr>           <dbl> <int>
##  1 TH26            0.182     6
##  2 THR17           0.185    17
##  3 THR11           0.213    25
##  4 THR19           0.245    23
##  5 THR18           0.277     6
##  6 THR13           0.302    24
##  7 THR30           0.306    62
##  8 THR22           0.328    24
##  9 THR28           0.329     3
## 10 THR37           0.330    15
## #  with 17 more rows

read_counts_with_slices %>% 
  filter(UMEND>20E6) %>%
  mutate(project=gsub("[-_].*$", "", sample_id)) %>%
  group_by(project) %>%
  summarize(
    mean_pct_dupe=mean(Percent_duplicates),
    n=n()
    ) %>%
  arrange((mean_pct_dupe))

## # A tibble: 26 x 3
##    project mean_pct_dupe     n
##    <chr>           <dbl> <int>
##  1 THR11           0.174    23
##  2 THR17           0.185    17
##  3 TH26            0.188     2
##  4 THR13           0.207     5
##  5 THR10           0.228    14
##  6 THR19           0.245    23
##  7 THR18           0.277     6
##  8 THR14           0.291    27
##  9 THR30           0.306    62
## 10 THR22           0.326    22
## #  with 16 more rows
