12 Read types survey of RNA-Seq samples
…
read_counts_with_slices2 <- read_counts_with_slices %>% 
  mutate(
    pct_unmapped = not_uniquely_mapped / total_sequences,
    pct_non_exonic = non_exonic_reads - UMND,
    in_ref_range = sample_id %in% samples_within_read_type_limits)

summary(read_counts_with_slices2$pct_unmapped)

##    Min. 1st Qu.  Median    Mean 3rd Qu.    Max. 
## 0.02518 0.09451 0.12029 0.21115 0.19367 0.99922

read_counts_with_slices2 %>% arrange(desc(pct_unmapped))

## # A tibble: 1,082 x 14
##    sample_id total_sequences  UMEND   UMND     UM pct_UMEND
##    <chr>               <dbl>  <dbl>  <dbl>  <dbl>     <dbl>
##  1 THR33_10       205143184 1.61e5 1.72e6 159788  0.000783
##  2 THR33_10       225154036 1.38e5 3.26e6 192127  0.000613
##  3 THR33_10       218995044 1.64e5 2.73e6 187906  0.000750
##  4 THR33_10       199246373 1.39e5 1.25e6 172461  0.000698
##  5 THR33_10       235425032 1.34e5 2.12e6 204477  0.000569
##  6 THR33_10       208578356 1.48e5 1.70e6 182216  0.000710
##  7 THR33_10       210449722 1.53e5 2.32e6 184106  0.000727
##  8 THR33_10       215235780 1.76e5 2.41e6 193700  0.000816
##  9 THR33_10       220009177 1.76e5 3.29e6 202808  0.000800
## 10 THR33_10       196491054 1.39e5 2.08e6 182519  0.000707
## #  with 1,072 more rows, and 8 more variables: Percent_duplicates <dbl>,
## #   not_uniquely_mapped <dbl>, duplicate_reads <dbl>,
## #   non_exonic_reads <dbl>, sum_slices <dbl>, pct_unmapped <dbl>,
## #   pct_non_exonic <dbl>, in_ref_range <lgl>

read_counts_with_slices2 %>%
  filter(UMEND > 20E6) %>%
  arrange(desc(pct_unmapped))

## # A tibble: 831 x 14
##    sample_id total_sequences  UMEND   UMND     UM pct_UMEND
##    <chr>               <dbl>  <dbl>  <dbl>  <dbl>     <dbl>
##  1 THR33_11       272986175 3.70e7 5.14e7 1.16e8    0.136 
##  2 TH02_065        82425973 3.23e7 3.59e7 4.26e7    0.392 
##  3 THR33_09       279211265 4.32e7 5.96e7 1.45e8    0.155 
##  4 THR33_11       276851917 2.97e7 4.12e7 1.45e8    0.107 
##  5 THR33_11       272093031 4.78e7 7.43e7 1.55e8    0.176 
##  6 THR33_09       293233737 5.55e7 1.01e8 1.73e8    0.189 
##  7 THR33_09       273834993 5.60e7 8.32e7 1.62e8    0.205 
##  8 THR33_10       293501690 3.60e7 5.35e7 1.76e8    0.123 
##  9 THR33_10       281707475 5.74e7 8.02e7 1.75e8    0.204 
## 10 THR33_11       431251156 3.70e7 6.90e7 2.69e8    0.0859
## #  with 821 more rows, and 8 more variables: Percent_duplicates <dbl>,
## #   not_uniquely_mapped <dbl>, duplicate_reads <dbl>,
## #   non_exonic_reads <dbl>, sum_slices <dbl>, pct_unmapped <dbl>,
## #   pct_non_exonic <dbl>, in_ref_range <lgl>
…
QC

Average duplicate rate per project

read_counts_with_slices %>% 
  mutate(project=gsub("[-_].*$", "", sample_id)) %>%
  group_by(project) %>%
  summarize(
    mean_pct_dupe=mean(Percent_duplicates),
    n=n()
    ) %>%
  arrange((mean_pct_dupe))

## # A tibble: 29 x 3
##    project mean_pct_dupe     n
##    <chr>           <dbl> <int>
##  1 THR33        -4.90      127
##  2 THR08        -0.00660    63
##  3 THR37         0.123      15
##  4 TH26          0.125       6
##  5 THR17         0.131      17
##  6 THR18         0.142       6
##  7 THR11         0.151      25
##  8 THR19         0.167      23
##  9 THR30         0.242      62
## 10 THR10         0.253      19
## #  with 19 more rows

read_counts_with_slices %>% 
  filter(UMEND>20E6) %>%
  mutate(project=gsub("[-_].*$", "", sample_id)) %>%
  group_by(project) %>%
  summarize(
    mean_pct_dupe=mean(Percent_duplicates),
    n=n()
    ) %>%
  arrange((mean_pct_dupe))

## # A tibble: 28 x 3
##    project mean_pct_dupe     n
##    <chr>           <dbl> <int>
##  1 THR08        -0.00660    63
##  2 THR11         0.111      23
##  3 THR17         0.131      17
##  4 TH26          0.134       2
##  5 THR10         0.140      14
##  6 THR18         0.142       6
##  7 THR13         0.154       5
##  8 THR19         0.167      23
##  9 THR14         0.220      27
## 10 THR37         0.225       2
## #  with 18 more rows
